Project 1: Wrangling, Exploration, Visualization
…
Joining/Merging

# data inspection
data1 %>% distinct(`Country name`)

## # A tibble: 153 x 1
##    `Country name`
##    <chr>         
##  1 Finland       
##  2 Denmark       
##  3 Switzerland   
##  4 Iceland       
##  5 Norway        
##  6 Netherlands   
##  7 Sweden        
##  8 New Zealand   
##  9 Austria       
## 10 Luxembourg    
## #  with 143 more rows

data1 %>% nrow()

## [1] 153

data2 %>% distinct(Country)

## # A tibble: 132 x 1
##    Country    
##    <chr>      
##  1 Switzerland
##  2 Norway     
##  3 Iceland    
##  4 Japan      
##  5 Denmark    
##  6 Bahamas    
##  7 Luxembourg 
##  8 Israel     
##  9 Singapore  
## 10 South Korea
## #  with 122 more rows
…
# countries that only appear in data1
setdiff(countries1, countries_common)

## # A tibble: 42 x 1
##    Country                  
##    <chr>                    
##  1 Taiwan Province of China 
##  2 Kosovo                   
##  3 Trinidad and Tobago      
##  4 Bosnia and Herzegovina   
##  5 Tajikistan               
##  6 North Cyprus             
##  7 Hong Kong S.A.R. of China
##  8 Libya                    
##  9 Mongolia                 
## 10 Ivory Coast              
## #  with 32 more rows

# countries that only appear in data2
setdiff(countries2, countries_common)

## # A tibble: 21 x 1
##    Country            
##    <chr>              
##  1 Bahamas            
##  2 Hong Kong          
##  3 Barbados           
##  4 Seychelles         
##  5 Puerto Rico        
##  6 Macao              
##  7 Qatar              
##  8 Taiwan             
##  9 Palestine          
## 10 Trinidad And Tobago
## #  with 11 more rows
…
# For at least 1 function, define your own function and use
# it inside summarize
zscore <- function(x) {
    (x - mean(x))/sd(x)
}
joined_data %>% summarize(ladder_z = zscore(`Ladder score`))

## # A tibble: 111 x 1
##    ladder_z
##       <dbl>
##  1     1.89
##  2     1.74
##  3     1.66
##  4     1.61
##  5     1.59
##  6     1.56
##  7     1.47
##  8     1.42
##  9     1.42
## 10     1.36
## #  with 101 more rows
…
South Asia
6

Southeast Asia
8

Sub-Saharan Africa
13

Western Europe
20

joined_data %>% group_by(Country) %>% summarize(`Country count` = n())

## # A tibble: 111 x 2
##    Country     `Country count`
##    <chr>                 <int>
##  1 Afghanistan               1
##  2 Albania                   1
##  3 Algeria                   1
##  4 Argentina                 1
##  5 Armenia                   1
##  6 Australia                 1
##  7 Austria                   1
##  8 Azerbaijan                1
##  9 Bahrain                   1
## 10 Bangladesh                1
## #  with 101 more rows
…
